CONHEC_O_O,FORMACAO,INST_ENS_ORIG,CURSO_GRAD,O_O_GRAD,TRAB_PROGRAM,EXP_PROGRAM,TRAB_PROGR_O_O,EXP_O_O,LOGIN,FORUM_NOTICIAS,APRESENTACAO,FORUM_UNIDADE_AMBIENTACAO,LEITURA_CONTEUDO_UNIDADE_INIC,REVISAO_CONTEUDO_DURANTE_AVAL_INIC,TEMPO_ATIV_INIC_SEGUNDOS_DISC,NOTA_ATIV_INIC_LETRA,EVASAO
NAO_REGISTRADO,NAO_REGISTRADO,NAO_REGISTRADO,NAO_REGISTRADO,NAO_REGISTRADO,NAO_REGISTRADO,NAO_REGISTRADO,NAO_REGISTRADO,NAO_REGISTRADO,NAO,NAO_ACESSOU,NAO,NAO_ACESSOU,NAO,NAO,NAO_REGISTRADO,NAO_REGISTRADO,SIM
QUASE_TOTAL,GRADUACAO_INCOMPLETA,PRIVADA,CIENC_COMP,SIM,NAO,NAO_TRABALHA_PROG,NAO,NAO_TRABALHA_PROG,SIM,NAO_ACESSOU,SIM,ACESSOU,SIM,SIM,MAIOR_MEDIANA,F,NAO
NAO_REGISTRADO,NAO_REGISTRADO,NAO_REGISTRADO,NAO_REGISTRADO,NAO_REGISTRADO,NAO_REGISTRADO,NAO_REGISTRADO,NAO_REGISTRADO,NAO_REGISTRADO,SIM,NAO_ACESSOU,NAO,NAO_ACESSOU,NAO,NAO,NAO_REGISTRADO,NAO_REGISTRADO,SIM
QUASE_TOTAL,GRADUACAO_INCOMPLETA,PRIVADA,CIENC_COMP,SIM,NAO,NAO_TRABALHA_PROG,NAO,NAO_TRABALHA_PROG,SIM,ACESSOU,SIM,ACESSOU,SIM,NAO,MAIOR_MEDIANA,B,NAO
POUCO,GRADUACAO_INCOMPLETA,MUNICIPAL,SIST_INFO,NAO,NAO,NAO_TRABALHA_PROG,NAO,NAO_TRABALHA_PROG,SIM,ACESSOU,SIM,ACESSOU,SIM,NAO,MENOR_MEDIANA,F,SIM
POUCO,GRADUACAO_INCOMPLETA,MUNICIPAL,CIENC_COMP,SIM,SIM,1~2_ANOS,SIM,<1_ANO,SIM,ACESSOU,SIM,ACESSOU,SIM,SIM,MAIOR_MEDIANA,B,NAO
NAO_REGISTRADO,NAO_REGISTRADO,NAO_REGISTRADO,NAO_REGISTRADO,NAO_REGISTRADO,NAO_REGISTRADO,NAO_REGISTRADO,NAO_REGISTRADO,NAO_REGISTRADO,SIM,ACESSOU,NAO,NAO_ACESSOU,NAO,NAO,NAO_REGISTRADO,NAO_REGISTRADO,SIM
PARCIAL,GRADUACAO_INCOMPLETA,PRIVADA,CIENC_COMP,SIM,NAO,NAO_TRABALHA_PROG,NAO,NAO_TRABALHA_PROG,SIM,ACESSOU,SIM,ACESSOU,SIM,SIM,MAIOR_MEDIANA,C,NAO
NAO_REGISTRADO,NAO_REGISTRADO,NAO_REGISTRADO,NAO_REGISTRADO,NAO_REGISTRADO,NAO_REGISTRADO,NAO_REGISTRADO,NAO_REGISTRADO,NAO_REGISTRADO,SIM,NAO_ACESSOU,NAO,NAO_ACESSOU,NAO,NAO,NAO_REGISTRADO,NAO_REGISTRADO,SIM
NAO_REGISTRADO,NAO_REGISTRADO,NAO_REGISTRADO,NAO_REGISTRADO,NAO_REGISTRADO,NAO_REGISTRADO,NAO_REGISTRADO,NAO_REGISTRADO,NAO_REGISTRADO,SIM,NAO_ACESSOU,NAO,NAO_ACESSOU,NAO,NAO,NAO_REGISTRADO,NAO_REGISTRADO,SIM
PARCIAL,GRADUACAO_INCOMPLETA,PRIVADA,CIENC_COMP,SIM,NAO,NAO_TRABALHA_PROG,NAO,NAO_TRABALHA_PROG,SIM,NAO_ACESSOU,SIM,ACESSOU,SIM,NAO,MAIOR_MEDIANA,B,NAO
QUASE_TOTAL,GRADUACAO_INCOMPLETA,PRIVADA,CIENC_COMP,SIM,NAO,NAO_TRABALHA_PROG,NAO,NAO_TRABALHA_PROG,SIM,ACESSOU,SIM,NAO_ACESSOU,SIM,NAO,MENOR_MEDIANA,A,NAO
PARCIAL,GRADUACAO_INCOMPLETA,PRIVADA,CIENC_COMP,SIM,NAO,NAO_TRABALHA_PROG,NAO,NAO_TRABALHA_PROG,SIM,ACESSOU,SIM,NAO_ACESSOU,SIM,NAO,MAIOR_MEDIANA,F,SIM
PARCIAL,GRADUACAO_INCOMPLETA,PRIVADA,CIENC_COMP,SIM,SIM,<1_ANO,SIM,1~2_ANOS,SIM,ACESSOU,SIM,NAO_ACESSOU,SIM,NAO,MAIOR_MEDIANA,F,SIM
PARCIAL,GRADUACAO_INCOMPLETA,MUNICIPAL,SIST_INFO,SIM,NAO,NAO_TRABALHA_PROG,NAO,NAO_TRABALHA_PROG,SIM,NAO_ACESSOU,SIM,NAO_ACESSOU,SIM,NAO,MENOR_MEDIANA,F,SIM
NAO_REGISTRADO,NAO_REGISTRADO,NAO_REGISTRADO,NAO_REGISTRADO,NAO_REGISTRADO,NAO_REGISTRADO,NAO_REGISTRADO,NAO_REGISTRADO,NAO_REGISTRADO,NAO,NAO_ACESSOU,NAO,NAO_ACESSOU,NAO,NAO,NAO_REGISTRADO,NAO_REGISTRADO,SIM
NAO_REGISTRADO,NAO_REGISTRADO,NAO_REGISTRADO,NAO_REGISTRADO,NAO_REGISTRADO,NAO_REGISTRADO,NAO_REGISTRADO,NAO_REGISTRADO,NAO_REGISTRADO,NAO,NAO_ACESSOU,NAO,NAO_ACESSOU,NAO,NAO,NAO_REGISTRADO,NAO_REGISTRADO,SIM
QUASE_TOTAL,GRADUACAO_INCOMPLETA,PRIVADA,CIENC_COMP,SIM,NAO,NAO_TRABALHA_PROG,NAO,NAO_TRABALHA_PROG,SIM,ACESSOU,SIM,NAO_ACESSOU,SIM,NAO,MENOR_MEDIANA,A,NAO
PARCIAL,GRADUACAO_INCOMPLETA,MUNICIPAL,CIENC_COMP,SIM,NAO,NAO_TRABALHA_PROG,NAO,NAO_TRABALHA_PROG,SIM,ACESSOU,SIM,NAO_ACESSOU,SIM,NAO,MENOR_MEDIANA,D,NAO
NAO_REGISTRADO,NAO_REGISTRADO,NAO_REGISTRADO,NAO_REGISTRADO,NAO_REGISTRADO,NAO_REGISTRADO,NAO_REGISTRADO,NAO_REGISTRADO,NAO_REGISTRADO,SIM,NAO_ACESSOU,NAO,NAO_ACESSOU,NAO,NAO,NAO_REGISTRADO,NAO_REGISTRADO,SIM
QUASE_TOTAL,GRADUACAO_INCOMPLETA,PRIVADA,CIENC_COMP,SIM,NAO,NAO_TRABALHA_PROG,NAO,NAO_TRABALHA_PROG,SIM,NAO_ACESSOU,SIM,NAO_ACESSOU,SIM,NAO,MENOR_MEDIANA,F,NAO
PARCIAL,GRADUACAO_INCOMPLETA,MUNICIPAL,CIENC_COMP,SIM,SIM,<1_ANO,SIM,<1_ANO,SIM,NAO_ACESSOU,SIM,NAO_ACESSOU,SIM,NAO,MENOR_MEDIANA,D,SIM
NAO_REGISTRADO,NAO_REGISTRADO,NAO_REGISTRADO,NAO_REGISTRADO,NAO_REGISTRADO,NAO_REGISTRADO,NAO_REGISTRADO,NAO_REGISTRADO,NAO_REGISTRADO,SIM,NAO_ACESSOU,NAO,NAO_ACESSOU,NAO,NAO,NAO_REGISTRADO,NAO_REGISTRADO,SIM
PARCIAL,GRADUACAO_INCOMPLETA,MUNICIPAL,CIENC_COMP,SIM,NAO,NAO_TRABALHA_PROG,NAO,NAO_TRABALHA_PROG,SIM,NAO_ACESSOU,SIM,NAO_ACESSOU,SIM,NAO,MENOR_MEDIANA,C,SIM
PARCIAL,GRADUACAO_INCOMPLETA,PRIVADA,CIENC_COMP,SIM,NAO,NAO_TRABALHA_PROG,NAO,NAO_TRABALHA_PROG,SIM,ACESSOU,SIM,ACESSOU,SIM,NAO,MENOR_MEDIANA,C,NAO
NAO_REGISTRADO,NAO_REGISTRADO,NAO_REGISTRADO,NAO_REGISTRADO,NAO_REGISTRADO,NAO_REGISTRADO,NAO_REGISTRADO,NAO_REGISTRADO,NAO_REGISTRADO,SIM,ACESSOU,NAO,ACESSOU,SIM,NAO,NAO_REGISTRADO,NAO_REGISTRADO,SIM
NAO_REGISTRADO,NAO_REGISTRADO,NAO_REGISTRADO,NAO_REGISTRADO,NAO_REGISTRADO,NAO_REGISTRADO,NAO_REGISTRADO,NAO_REGISTRADO,NAO_REGISTRADO,SIM,ACESSOU,NAO,NAO_ACESSOU,SIM,NAO,NAO_REGISTRADO,NAO_REGISTRADO,SIM
NAO_REGISTRADO,NAO_REGISTRADO,NAO_REGISTRADO,NAO_REGISTRADO,NAO_REGISTRADO,NAO_REGISTRADO,NAO_REGISTRADO,NAO_REGISTRADO,NAO_REGISTRADO,SIM,ACESSOU,NAO,NAO_ACESSOU,SIM,NAO,NAO_REGISTRADO,NAO_REGISTRADO,SIM
NAO_REGISTRADO,NAO_REGISTRADO,NAO_REGISTRADO,NAO_REGISTRADO,NAO_REGISTRADO,NAO_REGISTRADO,NAO_REGISTRADO,NAO_REGISTRADO,NAO_REGISTRADO,NAO,NAO_ACESSOU,NAO,NAO_ACESSOU,NAO,NAO,NAO_REGISTRADO,NAO_REGISTRADO,SIM
POUCO,GRADUACAO_INCOMPLETA,MUNICIPAL,SIST_INFO,SIM,NAO,NAO_TRABALHA_PROG,NAO,NAO_TRABALHA_PROG,SIM,ACESSOU,SIM,NAO_ACESSOU,SIM,NAO,MAIOR_MEDIANA,F,SIM
PARCIAL,GRADUACAO_INCOMPLETA,PRIVADA,CIENC_COMP,SIM,SIM,3~5_ANOS,SIM,3~5_ANOS,SIM,ACESSOU,SIM,NAO_ACESSOU,SIM,NAO,MENOR_MEDIANA,A,SIM
NAO_REGISTRADO,NAO_REGISTRADO,NAO_REGISTRADO,NAO_REGISTRADO,NAO_REGISTRADO,NAO_REGISTRADO,NAO_REGISTRADO,NAO_REGISTRADO,NAO_REGISTRADO,SIM,NAO_ACESSOU,NAO,NAO_ACESSOU,NAO,NAO,NAO_REGISTRADO,NAO_REGISTRADO,SIM
QUASE_TOTAL,GRADUACAO_INCOMPLETA,PRIVADA,CIENC_COMP,SIM,SIM,<1_ANO,NAO,NAO_TRABALHA_PROG,SIM,ACESSOU,SIM,NAO_ACESSOU,SIM,NAO,MENOR_MEDIANA,A,SIM
PARCIAL,GRADUACAO_INCOMPLETA,PRIVADA,CIENC_COMP,SIM,NAO,NAO_TRABALHA_PROG,NAO,NAO_TRABALHA_PROG,SIM,ACESSOU,SIM,ACESSOU,SIM,NAO,MAIOR_MEDIANA,F,NAO
NAO_REGISTRADO,NAO_REGISTRADO,NAO_REGISTRADO,NAO_REGISTRADO,NAO_REGISTRADO,NAO_REGISTRADO,NAO_REGISTRADO,NAO_REGISTRADO,NAO_REGISTRADO,SIM,NAO_ACESSOU,NAO,NAO_ACESSOU,NAO,NAO,NAO_REGISTRADO,NAO_REGISTRADO,SIM
POUCO,GRADUACAO_INCOMPLETA,MUNICIPAL,CIENC_COMP,SIM,NAO,NAO_TRABALHA_PROG,NAO,NAO_TRABALHA_PROG,SIM,NAO_ACESSOU,SIM,NAO_ACESSOU,SIM,NAO,MAIOR_MEDIANA,B,SIM
POUCO,GRADUACAO_INCOMPLETA,MUNICIPAL,SIST_INFO,SIM,SIM,<1_ANO,NAO,NAO_TRABALHA_PROG,SIM,NAO_ACESSOU,SIM,NAO_ACESSOU,SIM,NAO,MENOR_MEDIANA,A,SIM
NAO_REGISTRADO,NAO_REGISTRADO,NAO_REGISTRADO,NAO_REGISTRADO,NAO_REGISTRADO,NAO_REGISTRADO,NAO_REGISTRADO,NAO_REGISTRADO,NAO_REGISTRADO,SIM,ACESSOU,NAO,NAO_ACESSOU,SIM,NAO,NAO_REGISTRADO,NAO_REGISTRADO,NAO
PARCIAL,GRADUACAO_INCOMPLETA,PRIVADA,CIENC_COMP,SIM,NAO,NAO_TRABALHA_PROG,NAO,NAO_TRABALHA_PROG,SIM,NAO_ACESSOU,SIM,NAO_ACESSOU,SIM,NAO,MAIOR_MEDIANA,F,NAO
