ALUNO,CONHEC_O_O,FORMACAO,INST_ENS_ORIG,CURSO_GRAD,O_O_GRAD,TRAB_PROGRAM,EXP_PROGRAM,TRAB_PROGR_O_O,EXP_O_O,LOGIN,FORUM_NOTICIAS,APRESENTACAO,FORUM_UNIDADE_AMBIENTACAO,LEITURA_CONTEUDO_UNIDADE_INIC,REVISAO_CONTEUDO_DURANTE_AVAL_INIC,TEMPO_ATIV_INIC_SEGUNDOS_DISC,NOTA_ATIV_INIC_LETRA,FORUM_UNIDADE_1,REVISAO_CONTEUDO_DURANTE_AVAL_1,ATIVIDADE_FIXACAO_1,LEITURA_CONTEUDO_UNIDADE_1,TEMPO_ATIV_1_SEGUNDOS_DISC,NOTA_ATIV_1_LETRA,APROVADO_ATIV_1,FORUM_UNIDADE_2,LEITURA_CONTEUDO_ANTES_AVAL_2,REVISAO_CONTEUDO_DURANTE_AVAL_2,TEMPO_ATIV_2_SEGUNDOS_DISC,NOTA_ATIV_2_LETRA,APROVADO_ATIV_2,FORUM_UNIDADE_3,LEITURA_CONTEUDO_ANTES_AVAL_3,ATIVIDADE_FIXACAO_3,REVISAO_CONTEUDO_DURANTE_AVAL_3,TEMPO_ATIV_3_SEGUNDOS_DISC,NOTA_ATIV_3_LETRA,APROVADO_ATIV_3,FORUM_UNIDADE_4,LEITURA_CONTEUDO_ANTES_AVAL_4,ATIVIDADE_FIXACAO_4,REVISAO_CONTEUDO_DURANTE_AVAL_4,TEMPO_ATIV_4_SEGUNDOS_DISC,NOTA_ATIV_4_LETRA,APROVADO_ATIV_4,EVASAO
8,QUASE_TOTAL,GRADUACAO_INCOMPLETA,PRIVADA,CIENC_COMP,SIM,SIM,1~2_ANOS,SIM,1~2_ANOS,SIM,ACESSOU,SIM,NAO_ACESSOU,SIM,NAO,NAO_REGISTRADO,NAO_REGISTRADO,NAO_ACESSOU,NAO,NAO,NAO,NAO_REGISTRADO,NAO_REGISTRADO,NAO,NAO_ACESSOU,NAO,NAO,NAO_REGISTRADO,NAO_REGISTRADO,NAO,NAO_ACESSOU,NAO,NAO,NAO,NAO_REGISTRADO,NAO_REGISTRADO,NAO_REGISTRADO,NAO_ACESSOU,NAO,NAO,NAO,NAO_REGISTRADO,NAO_REGISTRADO,NAO_REGISTRADO,SIM
14,PARCIAL,GRADUACAO_INCOMPLETA,MUNICIPAL,CIENC_COMP,SIM,NAO,NAO_TRABALHA_PROG,NAO,NAO_TRABALHA_PROG,SIM,ACESSOU,SIM,ACESSOU,SIM,SIM,MAIOR_MEDIANA,C,ACESSOU,NAO,SIM,SIM,MAIOR_MEDIANA,C,SIM,NAO_ACESSOU,NAO,NAO,NAO_REGISTRADO,NAO_REGISTRADO,NAO,NAO_ACESSOU,NAO,NAO,NAO,NAO_REGISTRADO,NAO_REGISTRADO,NAO_REGISTRADO,NAO_ACESSOU,NAO,NAO,NAO,NAO_REGISTRADO,NAO_REGISTRADO,NAO_REGISTRADO,SIM
18,PARCIAL,GRADUACAO_INCOMPLETA,MUNICIPAL,CIENC_COMP,NAO,SIM,1~2_ANOS,SIM,1~2_ANOS,SIM,NAO_ACESSOU,SIM,NAO_ACESSOU,SIM,NAO,MENOR_MEDIANA,D,NAO_ACESSOU,NAO,NAO,NAO,NAO_REGISTRADO,NAO_REGISTRADO,NAO,NAO_ACESSOU,NAO,NAO,NAO_REGISTRADO,NAO_REGISTRADO,NAO,NAO_ACESSOU,NAO,NAO,NAO,NAO_REGISTRADO,NAO_REGISTRADO,NAO_REGISTRADO,NAO_ACESSOU,NAO,NAO,NAO,NAO_REGISTRADO,NAO_REGISTRADO,NAO_REGISTRADO,SIM
23,POUCO,GRADUACAO_INCOMPLETA,PRIVADA,CIENC_COMP,SIM,NAO,NAO_TRABALHA_PROG,SIM,NAO_TRABALHA_PROG,SIM,ACESSOU,SIM,ACESSOU,SIM,NAO,MAIOR_MEDIANA,F,ACESSOU,SIM,SIM,SIM,MAIOR_MEDIANA,D,SIM,NAO_ACESSOU,SIM,NAO,NAO_REGISTRADO,NAO_REGISTRADO,NAO,NAO_ACESSOU,NAO,NAO,NAO,NAO_REGISTRADO,NAO_REGISTRADO,NAO_REGISTRADO,NAO_ACESSOU,NAO,NAO,NAO,NAO_REGISTRADO,NAO_REGISTRADO,NAO_REGISTRADO,SIM
38,PARCIAL,GRADUACAO_INCOMPLETA,PRIVADA,CIENC_COMP,SIM,NAO,NAO_TRABALHA_PROG,NAO,NAO_TRABALHA_PROG,SIM,NAO_ACESSOU,SIM,NAO_ACESSOU,SIM,NAO,MENOR_MEDIANA,B,ACESSOU,NAO,SIM,SIM,NAO_REGISTRADO,NAO_REGISTRADO,NAO,ACESSOU,SIM,NAO,NAO_REGISTRADO,NAO_REGISTRADO,NAO,NAO_ACESSOU,SIM,NAO,NAO,NAO_REGISTRADO,NAO_REGISTRADO,NAO_REGISTRADO,NAO_ACESSOU,NAO,NAO,NAO,NAO_REGISTRADO,NAO_REGISTRADO,NAO_REGISTRADO,SIM
24,PARCIAL,GRADUACAO_INCOMPLETA,PRIVADA,CIENC_COMP,SIM,NAO,NAO_TRABALHA_PROG,NAO,NAO_TRABALHA_PROG,SIM,NAO_ACESSOU,SIM,NAO_ACESSOU,SIM,SIM,MAIOR_MEDIANA,C,NAO_ACESSOU,SIM,SIM,SIM,MAIOR_MEDIANA,A,SIM,NAO_ACESSOU,SIM,SIM,MAIOR_MEDIANA,A,SIM,ACESSOU,SIM,SIM,NAO,MAIOR_MEDIANA,B,SIM,NAO_ACESSOU,SIM,NAO,SIM,MAIOR_MEDIANA,A,SIM,NAO
33,PARCIAL,GRADUACAO_INCOMPLETA,PRIVADA,CIENC_COMP,SIM,NAO,NAO_TRABALHA_PROG,NAO,NAO_TRABALHA_PROG,SIM,ACESSOU,SIM,ACESSOU,SIM,NAO,MAIOR_MEDIANA,C,NAO_ACESSOU,SIM,SIM,SIM,MAIOR_MEDIANA,F,NAO,NAO_ACESSOU,SIM,SIM,MAIOR_MEDIANA,A,SIM,NAO_ACESSOU,SIM,NAO,NAO,MAIOR_MEDIANA,F,NAO,NAO_ACESSOU,SIM,NAO,SIM,MAIOR_MEDIANA,A,SIM,NAO
42,PARCIAL,GRADUACAO_INCOMPLETA,PRIVADA,CIENC_COMP,SIM,NAO,NAO_TRABALHA_PROG,NAO,NAO_TRABALHA_PROG,SIM,NAO_ACESSOU,SIM,ACESSOU,SIM,NAO,MAIOR_MEDIANA,F,ACESSOU,SIM,SIM,SIM,MENOR_MEDIANA,C,SIM,ACESSOU,SIM,NAO,MENOR_MEDIANA,A,SIM,ACESSOU,SIM,SIM,NAO,MAIOR_MEDIANA,D,SIM,ACESSOU,SIM,SIM,NAO,MENOR_MEDIANA,B,SIM,NAO
48,PARCIAL,GRADUACAO_INCOMPLETA,PRIVADA,CIENC_COMP,SIM,NAO,NAO_TRABALHA_PROG,NAO,NAO_TRABALHA_PROG,SIM,NAO_ACESSOU,SIM,NAO_ACESSOU,SIM,NAO,MENOR_MEDIANA,F,NAO_ACESSOU,SIM,NAO,SIM,MENOR_MEDIANA,F,NAO,NAO_ACESSOU,SIM,SIM,MENOR_MEDIANA,C,SIM,NAO_ACESSOU,SIM,NAO,NAO,MENOR_MEDIANA,F,NAO,NAO_ACESSOU,NAO,NAO,NAO,MENOR_MEDIANA,A,SIM,NAO
49,NAO_REGISTRADO,NAO_REGISTRADO,NAO_REGISTRADO,NAO_REGISTRADO,NAO_REGISTRADO,NAO_REGISTRADO,NAO_REGISTRADO,NAO_REGISTRADO,NAO_REGISTRADO,SIM,ACESSOU,NAO,NAO_ACESSOU,NAO,NAO,NAO_REGISTRADO,NAO_REGISTRADO,NAO_ACESSOU,NAO,NAO,NAO,NAO_REGISTRADO,NAO_REGISTRADO,NAO,NAO_ACESSOU,NAO,NAO,NAO_REGISTRADO,NAO_REGISTRADO,NAO,NAO_ACESSOU,NAO,NAO,NAO,NAO_REGISTRADO,NAO_REGISTRADO,NAO_REGISTRADO,NAO_ACESSOU,NAO,NAO,NAO,NAO_REGISTRADO,NAO_REGISTRADO,NAO_REGISTRADO,SIM
