@relation POO_variaveis_classificacao_v1.3.0_weka_dados_pessoais

@attribute CONHEC_O_O {NAO_ENCONTRADO,QUASE_TOTAL,POUCO,PARCIAL}
@attribute FORMACAO {NAO_ENCONTRADO,GRADUACAO_INCOMPLETA}
@attribute INST_ENS_ORIG {NAO_ENCONTRADO,PRIVADA,MUNICIPAL}
@attribute CURSO_GRAD {NAO_ENCONTRADO,CIENC_COMP,SIST_INFO}
@attribute O_O_GRAD {NAO_ENCONTRADO,SIM,NAO}
@attribute TRAB_PROGRAM {NAO_ENCONTRADO,NAO,SIM}
@attribute EXP_PROGRAM {NAO_ENCONTRADO,NAO_TRABALHA_PROG,1~2_ANOS,<1_ANO,3~5_ANOS}
@attribute TRAB_PROGR_O_O {NAO_ENCONTRADO,NAO,SIM}
@attribute EXP_O_O {NAO_ENCONTRADO,NAO_TRABALHA_PROG,<1_ANO,1~2_ANOS,3~5_ANOS}
@attribute DROPOUT {SIM,NAO}

@data
NAO_ENCONTRADO,NAO_ENCONTRADO,NAO_ENCONTRADO,NAO_ENCONTRADO,NAO_ENCONTRADO,NAO_ENCONTRADO,NAO_ENCONTRADO,NAO_ENCONTRADO,NAO_ENCONTRADO,SIM
QUASE_TOTAL,GRADUACAO_INCOMPLETA,PRIVADA,CIENC_COMP,SIM,NAO,NAO_TRABALHA_PROG,NAO,NAO_TRABALHA_PROG,NAO
NAO_ENCONTRADO,NAO_ENCONTRADO,NAO_ENCONTRADO,NAO_ENCONTRADO,NAO_ENCONTRADO,NAO_ENCONTRADO,NAO_ENCONTRADO,NAO_ENCONTRADO,NAO_ENCONTRADO,SIM
QUASE_TOTAL,GRADUACAO_INCOMPLETA,PRIVADA,CIENC_COMP,SIM,NAO,NAO_TRABALHA_PROG,NAO,NAO_TRABALHA_PROG,NAO
POUCO,GRADUACAO_INCOMPLETA,MUNICIPAL,SIST_INFO,NAO,NAO,NAO_TRABALHA_PROG,NAO,NAO_TRABALHA_PROG,SIM
POUCO,GRADUACAO_INCOMPLETA,MUNICIPAL,CIENC_COMP,SIM,SIM,1~2_ANOS,SIM,<1_ANO,NAO
NAO_ENCONTRADO,NAO_ENCONTRADO,NAO_ENCONTRADO,NAO_ENCONTRADO,NAO_ENCONTRADO,NAO_ENCONTRADO,NAO_ENCONTRADO,NAO_ENCONTRADO,NAO_ENCONTRADO,SIM
QUASE_TOTAL,GRADUACAO_INCOMPLETA,PRIVADA,CIENC_COMP,SIM,SIM,1~2_ANOS,SIM,1~2_ANOS,SIM
PARCIAL,GRADUACAO_INCOMPLETA,PRIVADA,CIENC_COMP,SIM,NAO,NAO_TRABALHA_PROG,NAO,NAO_TRABALHA_PROG,NAO
NAO_ENCONTRADO,NAO_ENCONTRADO,NAO_ENCONTRADO,NAO_ENCONTRADO,NAO_ENCONTRADO,NAO_ENCONTRADO,NAO_ENCONTRADO,NAO_ENCONTRADO,NAO_ENCONTRADO,SIM
NAO_ENCONTRADO,NAO_ENCONTRADO,NAO_ENCONTRADO,NAO_ENCONTRADO,NAO_ENCONTRADO,NAO_ENCONTRADO,NAO_ENCONTRADO,NAO_ENCONTRADO,NAO_ENCONTRADO,SIM
PARCIAL,GRADUACAO_INCOMPLETA,PRIVADA,CIENC_COMP,SIM,NAO,NAO_TRABALHA_PROG,NAO,NAO_TRABALHA_PROG,NAO
QUASE_TOTAL,GRADUACAO_INCOMPLETA,PRIVADA,CIENC_COMP,SIM,NAO,NAO_TRABALHA_PROG,NAO,NAO_TRABALHA_PROG,NAO
PARCIAL,GRADUACAO_INCOMPLETA,MUNICIPAL,CIENC_COMP,SIM,NAO,NAO_TRABALHA_PROG,NAO,NAO_TRABALHA_PROG,SIM
PARCIAL,GRADUACAO_INCOMPLETA,PRIVADA,CIENC_COMP,SIM,NAO,NAO_TRABALHA_PROG,NAO,NAO_TRABALHA_PROG,SIM
PARCIAL,GRADUACAO_INCOMPLETA,PRIVADA,CIENC_COMP,SIM,SIM,<1_ANO,SIM,1~2_ANOS,SIM
PARCIAL,GRADUACAO_INCOMPLETA,MUNICIPAL,SIST_INFO,SIM,NAO,NAO_TRABALHA_PROG,NAO,NAO_TRABALHA_PROG,SIM
PARCIAL,GRADUACAO_INCOMPLETA,MUNICIPAL,CIENC_COMP,NAO,SIM,1~2_ANOS,SIM,1~2_ANOS,SIM
NAO_ENCONTRADO,NAO_ENCONTRADO,NAO_ENCONTRADO,NAO_ENCONTRADO,NAO_ENCONTRADO,NAO_ENCONTRADO,NAO_ENCONTRADO,NAO_ENCONTRADO,NAO_ENCONTRADO,SIM
NAO_ENCONTRADO,NAO_ENCONTRADO,NAO_ENCONTRADO,NAO_ENCONTRADO,NAO_ENCONTRADO,NAO_ENCONTRADO,NAO_ENCONTRADO,NAO_ENCONTRADO,NAO_ENCONTRADO,SIM
QUASE_TOTAL,GRADUACAO_INCOMPLETA,PRIVADA,CIENC_COMP,SIM,NAO,NAO_TRABALHA_PROG,NAO,NAO_TRABALHA_PROG,NAO
PARCIAL,GRADUACAO_INCOMPLETA,MUNICIPAL,CIENC_COMP,SIM,NAO,NAO_TRABALHA_PROG,NAO,NAO_TRABALHA_PROG,NAO
POUCO,GRADUACAO_INCOMPLETA,PRIVADA,CIENC_COMP,SIM,NAO,NAO_TRABALHA_PROG,SIM,NAO_TRABALHA_PROG,SIM
PARCIAL,GRADUACAO_INCOMPLETA,PRIVADA,CIENC_COMP,SIM,NAO,NAO_TRABALHA_PROG,NAO,NAO_TRABALHA_PROG,NAO
NAO_ENCONTRADO,NAO_ENCONTRADO,NAO_ENCONTRADO,NAO_ENCONTRADO,NAO_ENCONTRADO,NAO_ENCONTRADO,NAO_ENCONTRADO,NAO_ENCONTRADO,NAO_ENCONTRADO,SIM
QUASE_TOTAL,GRADUACAO_INCOMPLETA,PRIVADA,CIENC_COMP,SIM,NAO,NAO_TRABALHA_PROG,NAO,NAO_TRABALHA_PROG,NAO
PARCIAL,GRADUACAO_INCOMPLETA,MUNICIPAL,CIENC_COMP,SIM,SIM,<1_ANO,SIM,<1_ANO,SIM
NAO_ENCONTRADO,NAO_ENCONTRADO,NAO_ENCONTRADO,NAO_ENCONTRADO,NAO_ENCONTRADO,NAO_ENCONTRADO,NAO_ENCONTRADO,NAO_ENCONTRADO,NAO_ENCONTRADO,SIM
PARCIAL,GRADUACAO_INCOMPLETA,MUNICIPAL,CIENC_COMP,SIM,NAO,NAO_TRABALHA_PROG,NAO,NAO_TRABALHA_PROG,SIM
PARCIAL,GRADUACAO_INCOMPLETA,PRIVADA,CIENC_COMP,SIM,NAO,NAO_TRABALHA_PROG,NAO,NAO_TRABALHA_PROG,NAO
NAO_ENCONTRADO,NAO_ENCONTRADO,NAO_ENCONTRADO,NAO_ENCONTRADO,NAO_ENCONTRADO,NAO_ENCONTRADO,NAO_ENCONTRADO,NAO_ENCONTRADO,NAO_ENCONTRADO,SIM
NAO_ENCONTRADO,NAO_ENCONTRADO,NAO_ENCONTRADO,NAO_ENCONTRADO,NAO_ENCONTRADO,NAO_ENCONTRADO,NAO_ENCONTRADO,NAO_ENCONTRADO,NAO_ENCONTRADO,SIM
PARCIAL,GRADUACAO_INCOMPLETA,PRIVADA,CIENC_COMP,SIM,NAO,NAO_TRABALHA_PROG,NAO,NAO_TRABALHA_PROG,NAO
NAO_ENCONTRADO,NAO_ENCONTRADO,NAO_ENCONTRADO,NAO_ENCONTRADO,NAO_ENCONTRADO,NAO_ENCONTRADO,NAO_ENCONTRADO,NAO_ENCONTRADO,NAO_ENCONTRADO,SIM
NAO_ENCONTRADO,NAO_ENCONTRADO,NAO_ENCONTRADO,NAO_ENCONTRADO,NAO_ENCONTRADO,NAO_ENCONTRADO,NAO_ENCONTRADO,NAO_ENCONTRADO,NAO_ENCONTRADO,SIM
POUCO,GRADUACAO_INCOMPLETA,MUNICIPAL,SIST_INFO,SIM,NAO,NAO_TRABALHA_PROG,NAO,NAO_TRABALHA_PROG,SIM
PARCIAL,GRADUACAO_INCOMPLETA,PRIVADA,CIENC_COMP,SIM,SIM,3~5_ANOS,SIM,3~5_ANOS,SIM
PARCIAL,GRADUACAO_INCOMPLETA,PRIVADA,CIENC_COMP,SIM,NAO,NAO_TRABALHA_PROG,NAO,NAO_TRABALHA_PROG,SIM
NAO_ENCONTRADO,NAO_ENCONTRADO,NAO_ENCONTRADO,NAO_ENCONTRADO,NAO_ENCONTRADO,NAO_ENCONTRADO,NAO_ENCONTRADO,NAO_ENCONTRADO,NAO_ENCONTRADO,SIM
QUASE_TOTAL,GRADUACAO_INCOMPLETA,PRIVADA,CIENC_COMP,SIM,SIM,<1_ANO,NAO,NAO_TRABALHA_PROG,SIM
PARCIAL,GRADUACAO_INCOMPLETA,PRIVADA,CIENC_COMP,SIM,NAO,NAO_TRABALHA_PROG,NAO,NAO_TRABALHA_PROG,NAO
PARCIAL,GRADUACAO_INCOMPLETA,PRIVADA,CIENC_COMP,SIM,NAO,NAO_TRABALHA_PROG,NAO,NAO_TRABALHA_PROG,NAO
