CONHEC_O_O,FORMACAO,INST_ENS_ORIG,CURSO_GRAD,O_O_GRAD,TRAB_PROGRAM,EXP_PROGRAM,TRAB_PROGR_O_O,EXP_O_O,DROPOUT
NAO_ENCONTRADO,NAO_ENCONTRADO,NAO_ENCONTRADO,NAO_ENCONTRADO,NAO_ENCONTRADO,NAO_ENCONTRADO,NAO_ENCONTRADO,NAO_ENCONTRADO,NAO_ENCONTRADO,SIM
QUASE_TOTAL,GRADUACAO_INCOMPLETA,PRIVADA,CIENC_COMP,SIM,NAO,NAO_TRABALHA_PROG,NAO,NAO_TRABALHA_PROG,NAO
NAO_ENCONTRADO,NAO_ENCONTRADO,NAO_ENCONTRADO,NAO_ENCONTRADO,NAO_ENCONTRADO,NAO_ENCONTRADO,NAO_ENCONTRADO,NAO_ENCONTRADO,NAO_ENCONTRADO,SIM
QUASE_TOTAL,GRADUACAO_INCOMPLETA,PRIVADA,CIENC_COMP,SIM,NAO,NAO_TRABALHA_PROG,NAO,NAO_TRABALHA_PROG,NAO
POUCO,GRADUACAO_INCOMPLETA,MUNICIPAL,SIST_INFO,NAO,NAO,NAO_TRABALHA_PROG,NAO,NAO_TRABALHA_PROG,SIM
POUCO,GRADUACAO_INCOMPLETA,MUNICIPAL,CIENC_COMP,SIM,SIM,1~2_ANOS,SIM,<1_ANO,NAO
NAO_ENCONTRADO,NAO_ENCONTRADO,NAO_ENCONTRADO,NAO_ENCONTRADO,NAO_ENCONTRADO,NAO_ENCONTRADO,NAO_ENCONTRADO,NAO_ENCONTRADO,NAO_ENCONTRADO,SIM
QUASE_TOTAL,GRADUACAO_INCOMPLETA,PRIVADA,CIENC_COMP,SIM,SIM,1~2_ANOS,SIM,1~2_ANOS,SIM
PARCIAL,GRADUACAO_INCOMPLETA,PRIVADA,CIENC_COMP,SIM,NAO,NAO_TRABALHA_PROG,NAO,NAO_TRABALHA_PROG,NAO
NAO_ENCONTRADO,NAO_ENCONTRADO,NAO_ENCONTRADO,NAO_ENCONTRADO,NAO_ENCONTRADO,NAO_ENCONTRADO,NAO_ENCONTRADO,NAO_ENCONTRADO,NAO_ENCONTRADO,SIM
NAO_ENCONTRADO,NAO_ENCONTRADO,NAO_ENCONTRADO,NAO_ENCONTRADO,NAO_ENCONTRADO,NAO_ENCONTRADO,NAO_ENCONTRADO,NAO_ENCONTRADO,NAO_ENCONTRADO,SIM
PARCIAL,GRADUACAO_INCOMPLETA,PRIVADA,CIENC_COMP,SIM,NAO,NAO_TRABALHA_PROG,NAO,NAO_TRABALHA_PROG,NAO
QUASE_TOTAL,GRADUACAO_INCOMPLETA,PRIVADA,CIENC_COMP,SIM,NAO,NAO_TRABALHA_PROG,NAO,NAO_TRABALHA_PROG,NAO
PARCIAL,GRADUACAO_INCOMPLETA,MUNICIPAL,CIENC_COMP,SIM,NAO,NAO_TRABALHA_PROG,NAO,NAO_TRABALHA_PROG,SIM
PARCIAL,GRADUACAO_INCOMPLETA,PRIVADA,CIENC_COMP,SIM,NAO,NAO_TRABALHA_PROG,NAO,NAO_TRABALHA_PROG,SIM
PARCIAL,GRADUACAO_INCOMPLETA,PRIVADA,CIENC_COMP,SIM,SIM,<1_ANO,SIM,1~2_ANOS,SIM
PARCIAL,GRADUACAO_INCOMPLETA,MUNICIPAL,SIST_INFO,SIM,NAO,NAO_TRABALHA_PROG,NAO,NAO_TRABALHA_PROG,SIM
PARCIAL,GRADUACAO_INCOMPLETA,MUNICIPAL,CIENC_COMP,NAO,SIM,1~2_ANOS,SIM,1~2_ANOS,SIM
NAO_ENCONTRADO,NAO_ENCONTRADO,NAO_ENCONTRADO,NAO_ENCONTRADO,NAO_ENCONTRADO,NAO_ENCONTRADO,NAO_ENCONTRADO,NAO_ENCONTRADO,NAO_ENCONTRADO,SIM
NAO_ENCONTRADO,NAO_ENCONTRADO,NAO_ENCONTRADO,NAO_ENCONTRADO,NAO_ENCONTRADO,NAO_ENCONTRADO,NAO_ENCONTRADO,NAO_ENCONTRADO,NAO_ENCONTRADO,SIM
QUASE_TOTAL,GRADUACAO_INCOMPLETA,PRIVADA,CIENC_COMP,SIM,NAO,NAO_TRABALHA_PROG,NAO,NAO_TRABALHA_PROG,NAO
PARCIAL,GRADUACAO_INCOMPLETA,MUNICIPAL,CIENC_COMP,SIM,NAO,NAO_TRABALHA_PROG,NAO,NAO_TRABALHA_PROG,NAO
POUCO,GRADUACAO_INCOMPLETA,PRIVADA,CIENC_COMP,SIM,NAO,NAO_TRABALHA_PROG,SIM,NAO_TRABALHA_PROG,SIM
PARCIAL,GRADUACAO_INCOMPLETA,PRIVADA,CIENC_COMP,SIM,NAO,NAO_TRABALHA_PROG,NAO,NAO_TRABALHA_PROG,NAO
NAO_ENCONTRADO,NAO_ENCONTRADO,NAO_ENCONTRADO,NAO_ENCONTRADO,NAO_ENCONTRADO,NAO_ENCONTRADO,NAO_ENCONTRADO,NAO_ENCONTRADO,NAO_ENCONTRADO,SIM
QUASE_TOTAL,GRADUACAO_INCOMPLETA,PRIVADA,CIENC_COMP,SIM,NAO,NAO_TRABALHA_PROG,NAO,NAO_TRABALHA_PROG,NAO
PARCIAL,GRADUACAO_INCOMPLETA,MUNICIPAL,CIENC_COMP,SIM,SIM,<1_ANO,SIM,<1_ANO,SIM
NAO_ENCONTRADO,NAO_ENCONTRADO,NAO_ENCONTRADO,NAO_ENCONTRADO,NAO_ENCONTRADO,NAO_ENCONTRADO,NAO_ENCONTRADO,NAO_ENCONTRADO,NAO_ENCONTRADO,SIM
PARCIAL,GRADUACAO_INCOMPLETA,MUNICIPAL,CIENC_COMP,SIM,NAO,NAO_TRABALHA_PROG,NAO,NAO_TRABALHA_PROG,SIM
PARCIAL,GRADUACAO_INCOMPLETA,PRIVADA,CIENC_COMP,SIM,NAO,NAO_TRABALHA_PROG,NAO,NAO_TRABALHA_PROG,NAO
NAO_ENCONTRADO,NAO_ENCONTRADO,NAO_ENCONTRADO,NAO_ENCONTRADO,NAO_ENCONTRADO,NAO_ENCONTRADO,NAO_ENCONTRADO,NAO_ENCONTRADO,NAO_ENCONTRADO,SIM
NAO_ENCONTRADO,NAO_ENCONTRADO,NAO_ENCONTRADO,NAO_ENCONTRADO,NAO_ENCONTRADO,NAO_ENCONTRADO,NAO_ENCONTRADO,NAO_ENCONTRADO,NAO_ENCONTRADO,SIM
PARCIAL,GRADUACAO_INCOMPLETA,PRIVADA,CIENC_COMP,SIM,NAO,NAO_TRABALHA_PROG,NAO,NAO_TRABALHA_PROG,NAO
NAO_ENCONTRADO,NAO_ENCONTRADO,NAO_ENCONTRADO,NAO_ENCONTRADO,NAO_ENCONTRADO,NAO_ENCONTRADO,NAO_ENCONTRADO,NAO_ENCONTRADO,NAO_ENCONTRADO,SIM
NAO_ENCONTRADO,NAO_ENCONTRADO,NAO_ENCONTRADO,NAO_ENCONTRADO,NAO_ENCONTRADO,NAO_ENCONTRADO,NAO_ENCONTRADO,NAO_ENCONTRADO,NAO_ENCONTRADO,SIM
POUCO,GRADUACAO_INCOMPLETA,MUNICIPAL,SIST_INFO,SIM,NAO,NAO_TRABALHA_PROG,NAO,NAO_TRABALHA_PROG,SIM
PARCIAL,GRADUACAO_INCOMPLETA,PRIVADA,CIENC_COMP,SIM,SIM,3~5_ANOS,SIM,3~5_ANOS,SIM
PARCIAL,GRADUACAO_INCOMPLETA,PRIVADA,CIENC_COMP,SIM,NAO,NAO_TRABALHA_PROG,NAO,NAO_TRABALHA_PROG,SIM
NAO_ENCONTRADO,NAO_ENCONTRADO,NAO_ENCONTRADO,NAO_ENCONTRADO,NAO_ENCONTRADO,NAO_ENCONTRADO,NAO_ENCONTRADO,NAO_ENCONTRADO,NAO_ENCONTRADO,SIM
QUASE_TOTAL,GRADUACAO_INCOMPLETA,PRIVADA,CIENC_COMP,SIM,SIM,<1_ANO,NAO,NAO_TRABALHA_PROG,SIM
PARCIAL,GRADUACAO_INCOMPLETA,PRIVADA,CIENC_COMP,SIM,NAO,NAO_TRABALHA_PROG,NAO,NAO_TRABALHA_PROG,NAO
PARCIAL,GRADUACAO_INCOMPLETA,PRIVADA,CIENC_COMP,SIM,NAO,NAO_TRABALHA_PROG,NAO,NAO_TRABALHA_PROG,NAO
